<?xml version="1.0" encoding="utf-8"?>
<!-- Generator: Adobe Illustrator 26.0.1, SVG Export Plug-In . SVG Version: 6.00 Build 0)  -->
<svg version="1.1" id="Calque_1" xmlns="http://www.w3.org/2000/svg" xmlns:xlink="http://www.w3.org/1999/xlink" x="0px" y="0px"
	 viewBox="0 0 18.5 19" style="enable-background:new 0 0 18.5 19;" xml:space="preserve">
<style type="text/css">
	.st0{fill:#406225;}
	.st1{fill:none;stroke:#406225;stroke-width:1.8;stroke-linecap:round;stroke-linejoin:round;stroke-miterlimit:10;}
</style>
<g>
	<path class="st0" d="M5.9,14.2v-1.9h2.7V7H6.9V5.1h3.6v7.2h2.3v1.9H5.9z"/>
</g>
<path class="st1" d="M5.4,3.6C3.3,4.9,1.9,7.2,1.9,9.9c0,4.1,3.3,7.4,7.4,7.4s7.4-3.3,7.4-7.4c0-2.6-1.4-5-3.5-6.3"/>
<circle class="st0" cx="9.3" cy="2.4" r="1.4"/>
</svg>
